singular	plural	isHonorific
{pronoun_subject} رسّام{after_noun_1} مبدع{after_noun_1} .		FALSE
{pronoun_subject} {before_word}أكل{after_verb_1} التفاحة.		FALSE
سألت{possesive_pronoun} إذا كان بإمكاني إستعارة قلم{possesive_pronoun}.		FALSE
قال{after_verb_3} أن{possessive_pronoun} {before_verb}ريد{after_verb_2} القيام بها ب{reflexive}.		FALSE
قال{after_verb_3} لي أن البيت {pronoun_object}.		FALSE
